Lab 4 - Multinomial Regression - Questions
…
Fit a model using mean-centered age, race, gender, income, and education to predict voter category. Show the code used to fit the model, but do not display the model output.

Code

    library(nnet)
    
voter_data

# A tibble: 5,836 × 120
   RespId weight    Q1  Q2_1  Q2_2  Q2_3  Q2_4  Q2_5  Q2_6  Q2_7  Q2_8  Q2_9
    <dbl>  <dbl> <dbl> <dbl> <dbl> <dbl> <dbl> <dbl> <dbl> <dbl> <dbl> <dbl>
 1 470001  0.752     1     1     1     2     4     1     4     2     2     4
 2 470002  1.03      1     1     2     2     3     1     1     2     1     1
 3 470003  1.08      1     1     1     2     2     1     1     2     1     4
 4 470007  0.682     1     1     1     1     3     1     1     1     1     1
 5 480008  0.991     1     1     1    -1     1     1     1     1     1     1
 6 480009  1.06      1     3     2     3     4     1     3     3     1     1
 7 480010  1.15      1     1     1     2     3     1     1     1     1     1
 8 470008  1.02      1     1     1     2     2     1     3     1     1     4
 9 470010  0.818     1     1     1     1     3     1     1     1     1     3
10 470011  1.17      1     1     1     2     1     1     1     1     2     1
# ℹ 5,826 more rows
# ℹ 108 more variables: Q2_10 <dbl>, Q3_1 <dbl>, Q3_2 <dbl>, Q3_3 <dbl>,
#   Q3_4 <dbl>, Q3_5 <dbl>, Q3_6 <dbl>, Q4_1 <dbl>, Q4_2 <dbl>, Q4_3 <dbl>,
#   Q4_4 <dbl>, Q4_5 <dbl>, Q4_6 <dbl>, Q5 <dbl>, Q6 <dbl>, Q7 <dbl>,
#   Q8_1 <dbl>, Q8_2 <dbl>, Q8_3 <dbl>, Q8_4 <dbl>, Q8_5 <dbl>, Q8_6 <dbl>,
#   Q8_7 <dbl>, Q8_8 <dbl>, Q8_9 <dbl>, Q9_1 <dbl>, Q9_2 <dbl>, Q9_3 <dbl>,
#   Q9_4 <dbl>, Q10_1 <dbl>, Q10_2 <dbl>, Q10_3 <dbl>, Q10_4 <dbl>, …
…
